%YAML 1.1
%TAG !u! tag:unity3d.com,2011:
--- !u!21 &2100000
Material:
  serializedVersion: 8
  m_ObjectHideFlags: 0
  m_CorrespondingSourceObject: {fileID: 0}
  m_PrefabInstance: {fileID: 0}
  m_PrefabAsset: {fileID: 0}
  m_Name: ToonWater
  m_Shader: {fileID: 4800000, guid: 9f6ddec382e350d4292f5bd2b2d3f77d, type: 3}
  m_ValidKeywords:
  - _WAVES_ON
  m_InvalidKeywords:
  - _LIGHTS_ON
  - _MAINFOAMPOWER_ON
  - _VERTEXOFFSET2_ON
  m_LightmapFlags: 4
  m_EnableInstancingVariants: 0
  m_DoubleSidedGI: 0
  m_CustomRenderQueue: -1
  stringTagMap: {}
  disabledShaderPasses: []
  m_SavedProperties:
    serializedVersion: 3
    m_TexEnvs:
    - _BumpMap:
        m_Texture: {fileID: 0}
        m_Scale: {x: 1, y: 1}
        m_Offset: {x: 0, y: 0}
    - _DetailAlbedoMap:
        m_Texture: {fileID: 0}
        m_Scale: {x: 1, y: 1}
        m_Offset: {x: 0, y: 0}
    - _DetailMask:
        m_Texture: {fileID: 0}
        m_Scale: {x: 1, y: 1}
        m_Offset: {x: 0, y: 0}
    - _DetailNormalMap:
        m_Texture: {fileID: 0}
        m_Scale: {x: 1, y: 1}
        m_Offset: {x: 0, y: 0}
    - _EmissionMap:
        m_Texture: {fileID: 0}
        m_Scale: {x: 1, y: 1}
        m_Offset: {x: 0, y: 0}
    - _MainTex:
        m_Texture: {fileID: 0}
        m_Scale: {x: 1, y: 1}
        m_Offset: {x: 0, y: 0}
    - _MetallicGlossMap:
        m_Texture: {fileID: 0}
        m_Scale: {x: 1, y: 1}
        m_Offset: {x: 0, y: 0}
    - _NoiseTexture:
        m_Texture: {fileID: 2800000, guid: 41d01fe6e8db970449385e7f43d4aa06, type: 3}
        m_Scale: {x: 1, y: 1}
        m_Offset: {x: 0, y: 0}
    - _NormalMap:
        m_Texture: {fileID: 2800000, guid: db76e0ea49f14f147bee066871c70d88, type: 3}
        m_Scale: {x: 1, y: 1}
        m_Offset: {x: 0, y: 0}
    - _OcclusionMap:
        m_Texture: {fileID: 0}
        m_Scale: {x: 1, y: 1}
        m_Offset: {x: 0, y: 0}
    - _ParallaxMap:
        m_Texture: {fileID: 0}
        m_Scale: {x: 1, y: 1}
        m_Offset: {x: 0, y: 0}
    - _texcoord:
        m_Texture: {fileID: 0}
        m_Scale: {x: 1, y: 1}
        m_Offset: {x: 0, y: 0}
    m_Ints: []
    m_Floats:
    - _BumpScale: 1
    - _Cutoff: 0.5
    - _DetailNormalMapScale: 1
    - _DstBlend: 0
    - _FoamDistance: 0.03
    - _FoamHardness: 0
    - _FoamOpacity: 0.6
    - _FoamScale: 0.38
    - _FoamSpeed: 0.125
    - _FresnelIntensity: 0.6
    - _GlossMapScale: 1
    - _Glossiness: 0.5
    - _GlossyReflections: 1
    - _Metallic: 0
    - _Mode: 0
    - _OcclusionStrength: 1
    - _Opacity: 0.55
    - _OpacityDepth: 17
    - _Parallax: 0.02
    - _ReflectionsCutoff: 0.151
    - _ReflectionsCutoffScale: 25.4
    - _ReflectionsCutoffScrollSpeed: -0.025
    - _ReflectionsOpacity: 0.227
    - _ReflectionsScale: 1.9
    - _ReflectionsScrollSpeed: 0.045
    - _ShallowColorDepth: 4
    - _SmoothnessTextureChannel: 0
    - _SpecularHighlights: 1
    - _SrcBlend: 1
    - _UVSec: 0
    - _WaveAmplitude: 0.5
    - _WaveIntensity: 0.0005
    - _WaveSpeed: 1
    - _Waves: 1
    - _ZWrite: 1
    - __dirty: 0
    m_Colors:
    - _Color: {r: 1, g: 1, b: 1, a: 1}
    - _DeepColor: {r: 0.13585794, g: 0.3453516, b: 0.40566036, a: 1}
    - _EmissionColor: {r: 0, g: 0, b: 0, a: 1}
    - _FoamColor: {r: 0.8962264, g: 0.7051899, b: 0.49461544, a: 1}
    - _FresnelColor: {r: 0.40792984, g: 0.63365436, b: 0.9716981, a: 1}
    - _ShallowColor: {r: 0.20558915, g: 0.65796304, b: 0.7924528, a: 1}
  m_BuildTextureStacks: []
